E1: OK : not (a source is foo)
E2: OK : not (a source is foo), and a source is foo
E3: OK : a source is foo, and not (a source is foo)
E4: OK : a source is foo
E5: OK : a source is not foo
E6: OK : a destination network is 10
E7: OK : a destination network is not 10

E8: OK : a source host is host
E9: OK : a source host is not host

E10: OK : a port range is 6000-6008

E11: OK : a port range is not 6000-6008

E12: OK : of type ip4
E13: OK : not of type tcp
E14: OK : ip4 that has source foo
E15: OK : ip4 that does not have source foo

E16: OK : ip4 that has a source of foo
E17: OK : ip4 that does not have a source of foo

E18: OK : ip4 that is broadcast
E19: OK : ip4 that is not broadcast
E20: OK : a destination network is 172.16 with mask 255.255.0.0

E21: OK : a destination network is 172.16 with a mask of 255.255.0.0

E22: OK : a destination network is not 172.16 with mask 255.255.0.0

E23: OK : a destination network is 172.16 of length 16 bits

E24: OK : a destination network is 10 of length 8 bits

E25: OK : 
        ip4 that has a source of foo, or
        arp that has a source of foo, or
        rarp that has a source of foo

E26: OK : 
        ip4 that has a network of bar, or
        arp that has a network of bar, or
        rarp that has a network of bar

E27: OK : 
        tcp that has a port of 53, or
        udp that has a port of 53

E28: OK : 
        ip4 that has a network of bar, or
        arp that has a network of bar, or
        rarp that has a network of bar

E29: OK : 
        a host is foo, and 
        a port is not ftp, and 
        a port is not ftp-data

E30: OK : 
        tcp that has a destination port of ftp, or
        tcp that has a destination port of ftp-data, or
        tcp that has a destination port of domain

E31: OK : 
        ethernet that has a proto of ip4, and
        a host is host

E32: OK : ethernet that has a destination of ehost

E33: OK : ethernet that has a destination of ehost

E34: OK : ethernet that has a destination of ehost

E35: OK : ethernet that has a source of ehost

E36: OK : ethernet that has a host of ehost

E37: OK : ethernet that has a destination of ehost

E38: OK : a gateway is host
E39: OK : 
        ethernet that has a host of ehost, and
        a host is not host

E40: OK : a host is not vs, and a host is not ace

E41: OK : a host is not vs, and a host is ace

E42: OK : {0} equals {0}
E43: OK : {ip[0]} equals {0}

E44: OK : not ({ip[0]} equals {0})

E45: OK : 
        {# the 0th byte of the ethernet header} 
        does not equal {0}

E46: OK : 
        {# the 0th byte of the ethernet header & 1} 
        does not equal {0}

E47: OK : 
        {# the 0th byte of the ip4 header & 0xf} 
        does not equal {5}

E48: OK : 
        {# the 6th 2 bytes of the ip4 header & 0x1fff} 
        equals {0}

E49: OK : 
        {tcp[tcpflags] & (tcp-syn | tcp-fin)} does not equal {0}

E50: OK : 
        examining the 1st byte of the tcp header:  
        it equals {25}

E51: OK : 
        examining the 0th byte of the ethernet header:
        {1 & # it} does not equal {0}

E52: OK : 
        examining the 0th byte of the ip4 header:
        {# it & 0xf} does not equal {5}

E53: OK : 
        examining the 6th 2 bytes of the ip4 header: 
        {# it & 0x1fff} equals {0}

E54: OK : if a source is foo then a host is ace

E55: OK : 
        if not (a source is foo) then not (a host is ace)

E56: OK : if a port is ftp then a net is 10

E57: OK : 
        if a source is foo 
        then (if a port is ftp 
              then a net is 10)

E58: OK : 
        if (a source is foo, and a net is 42) 
        then a host is ace

E59: OK : 
        if a source is foo 
        then a host is ace
        else ip4 that has destination foo

E60: OK : 
        if tcp that has source port 443
        then the 5th byte of the tcp header is {5} 
        else the 4th byte of the tcp header is less than {5}

E61: OK : a port is one of [ftp, ftp-data]

E62: OK : a port is in [ftp, ftp-data]

E63: OK : a port is not one of [ftp, ftp-data]

E64: OK : a port is not in [ftp, ftp-data]

E65: OK : a port is one of [ftp, ftp-data, domain]

E66: OK : 
        tcp that has a destination port 
        which is one of [ftp, ftp-data, domain]

E67: OK : 
        tcp that has a destination port 
        which is in [ftp, ftp-data, domain]

E68: OK : 
        a port is ftp if and only if a source is foo

E69: OK : 
        not (a port is ftp) if and only if not (a source is foo)

E70: OK : 
        (a port is ftp if and only if a source is foo), and a net is 10

E71: OK : 
        a port is ftp if and only if (a source is foo, and a net is 10)

E72: OK : 
        (a port is ftp, and a net is 10) if and only if a source is foo

E73: OK : 
        a port is ftp, and (a net is 10 if and only if a source is foo)

E74: OK : 
        ethernet that is broadcast

E75: OK : 
        ethernet that has a proto of IPv4

E76: OK : 
        ethernet that is broadcast

